{
  "mrt-gateway": {
      "Team": "Venus",
      "environment": "MTG"
  },"recurring-composite": {
    "Team": "Canopus",
    "environment": "AWS"
  },
  "recurring-web": {
    "Team": "Canopus",
    "environment": "AWS"
  },
  "recurring-data-service": {
    "Team": "Canopus",
    "environment": "AWS"
  },
  "recurring-service": {
    "Team": "Canopus",
    "environment": "AWS"
  },
  "recurring-worker": {
    "Team": "Canopus",
    "environment": "AWS"
  },
  "recurring-scheduler": {
    "Team": "Canopus",
    "environment": "AWS"
  },
  "recurring-portal": {
    "Team": "Canopus",
    "environment": "AWS"
  },
  "seven-privilege-service": {
      "Team": "Canopus",
      "environment": "MTG"
  },
  "cdb-adapter": {
      "Team": "Canopus",
      "environment": "MTG"
  },
  "ccp-adapter": {
      "Team": "Canopus",
      "environment": "MTG"
  },
  "ccpgw-adapter": {
      "Team": "Canopus",
      "environment": "MTG"
  },
  "poi-settlement": {
      "Team": "Canopus",
      "environment": "MTG"
  },
  "game-easy": {
      "Team": "Canopus",
      "environment": "MTG"
  },
  "mobile-topup-service": {
      "Team": "Canopus",
      "environment": "MTG"
  },
  "omx-adapter": {
      "Team": "Canopus",
      "environment": "MTG"
  },
  "711service-platform": {
      "Team": "Canopus",
      "environment": "MTG"
  },
  "partner-daily-adj-float": {
      "Team": "Canopus",
      "environment": "MTG"
  },
  "partner-service": {
      "Team": "Canopus",
      "environment": "MTG"
  },
  "redirect-service": {
      "Team": "Canopus",
      "environment": "AWS"
  },
  "topupreconcileplatform": {
      "Team": "Canopus",
      "environment": "PBI"
  },
  "epin-service": {
      "Team": "Puppis",
      "environment": "MTG"
  },
  "ecashstock": {
      "Team": "Puppis",
      "environment": "MTG"
  },
  "prepaid-card-callcenter": {
      "Team": "Puppis",
      "environment": "MTG"
  },
  "prepaid-card-service": {
      "Team": "Puppis",
      "environment": "MTG"
  },
  "prepaid-card-web-report": {
      "Team": "Puppis",
      "environment": "MTG"
  },
  "prepaid-card-data-service": {
      "Team": "Puppis",
      "environment": "MTG"
  },
  "vas-config": {
      "Team": "Puppis",
      "environment": "MTG"
  },
  "mrt-service": {
      "Team": "Puppis",
      "environment": "MTG"
  },
  "mrt-data-service": {
      "Team": "Puppis",
      "environment": "MTG"
  },
  "mrt-batch": {
      "Team": "Puppis",
      "environment": "MTG"
  },
   "mrt-reconcile": {
      "Team": "Puppis",
      "environment": "MTG"
  },
  "etg-consumer": {
      "Team": "Puppis",
      "environment": "MTG"
  },
  "ppc-service": {
      "Team": "Puppis",
      "environment": "MTG"
  },
  "partner-reconcile-service": {
      "Team": "Puppis",
      "environment": "MTG"
  },
  "data-file-importer": {
      "Team": "Puppis",
      "environment": "PBI"
  },
  "cpg-game-report": {
      "Team": "Puppis",
      "environment": "PBI"
  },
  "poi-merchant-web": {
      "Team": "Puppis",
      "environment": "PBI"
  },
  "prepaid-card-batch-reconciler": {
      "Team": "Puppis",
      "environment": "PBI"
  },
  "tutuka-gateway": {
      "Team": "Puppis",
      "environment": "MTG"
  },
  "cimb-promptpay-gateway": {
      "Team": "Puppis",
      "environment": "MTG"
  },
  "dcb-composite": {
      "Team": "Puppis",
      "environment": "MTG"
  },
  "dcb-web": {
      "Team": "Puppis",
      "environment": "MTG"
  },
  "cpgonlineservice": {
      "Team": "Vela",
      "environment": "MTG"
  },
  "cpg711": {
      "Team": "Vela",
      "environment": "MTG"
  },
  "ecatalog-cms": {
      "Team": "Vela",
      "environment": "AWS"
  },
  "ecatalog-composite": {
      "Team": "Vela",
      "environment": "AWS"
  },
  "ecatalog-web": {
      "Team": "Vela",
      "environment": "AWS"
  },
  "ecatalog-report": {
      "Team": "Vela",
      "environment": "AWS"
  },
  "ecatalog-data-service": {
      "Team": "Vela",
      "environment": "AWS"
  },
  "mobile-capture": {
      "Team": "Vela",
      "environment": "AWS"
  },
  "cmx-adapter": {
      "Team": "Vela",
      "environment": "MTG"
  },
  "poi-authen-service": {
      "Team": "Vela",
      "environment": "MTG"
  },
  "poi-data-service": {
      "Team": "Vela",
      "environment": "MTG"
  },
  "poi-gateway": {
      "Team": "Vela",
      "environment": "MTG"
  },
  "vas-service": {
      "Team": "Vela",
      "environment": "MTG"
  },
  "sbm-adapter": {
      "Team": "Vela",
      "environment": "MTG"
  },
  "poi-gateway-timeout": {
      "Team": "Vela",
      "environment": "PBI"
  },
  "vas-engine": {
      "Team": "Vela",
      "environment": "PBI"
  },
  "ecatalog-web-robot-ec2-group1": {
    "Team": "Vela",
    "environment": "AWS"
  },
  "ecatalog-web-robot-ec2-group2": {
    "Team": "Vela",
    "environment": "AWS"
  },
  "ecatalog-web-robot-ec2-group3": {
    "Team": "Vela",
    "environment": "AWS"
  },
  "ecatalog-web-robot-ec2-group4": {
    "Team": "Vela",
    "environment": "AWS"
  },
  "ecatalog-web-robot-ec2-group5": {
    "Team": "Vela",
    "environment": "AWS"
  },
  "ecatalog-web-robot-ec2-group6": {
    "Team": "Vela",
    "environment": "AWS"
  },
  "ecatalog-web-robot-ec2-group7": {
    "Team": "Vela",
    "environment": "AWS"
  },
  "mobile-capture-ec2": {
    "Team": "Vela",
    "environment": "AWS"
  },
  "ecatalog-cms-robot-ec2": {
    "Team": "Vela",
    "environment": "AWS"
  }
}
